^C:\USERS\MOKUJIN\DOCUMENTS\SPACEBATTLE\SPACEBATTLE\SPACEBATTLE\DEBUG\ABOUTSCREEN.OBJ|C:\USERS\MOKUJIN\DOCUMENTS\SPACEBATTLE\SPACEBATTLE\SPACEBATTLE\DEBUG\APROVESCREEN.OBJ|C:\USERS\MOKUJIN\DOCUMENTS\SPACEBATTLE\SPACEBATTLE\SPACEBATTLE\DEBUG\ASTEROID.OBJ|C:\USERS\MOKUJIN\DOCUMENTS\SPACEBATTLE\SPACEBATTLE\SPACEBATTLE\DEBUG\AUDIOMANAGER.OBJ|C:\USERS\MOKUJIN\DOCUMENTS\SPACEBATTLE\SPACEBATTLE\SPACEBATTLE\DEBUG\CAMERAEXT.OBJ|C:\USERS\MOKUJIN\DOCUMENTS\SPACEBATTLE\SPACEBATTLE\SPACEBATTLE\DEBUG\CBILLBOARDPARTICLEDRAWER.OBJ|C:\USERS\MOKUJIN\DOCUMENTS\SPACEBATTLE\SPACEBATTLE\SPACEBATTLE\DEBUG\CORIENTEDPARTICLEDRAWER.OBJ|C:\USERS\MOKUJIN\DOCUMENTS\SPACEBATTLE\SPACEBATTLE\SPACEBATTLE\DEBUG\CPARTICLEDRAWER.OBJ|C:\USERS\MOKUJIN\DOCUMENTS\SPACEBATTLE\SPACEBATTLE\SPACEBATTLE\DEBUG\CPARTICLEEMITTER.OBJ|C:\USERS\MOKUJIN\DOCUMENTS\SPACEBATTLE\SPACEBATTLE\SPACEBATTLE\DEBUG\CPARTICLESYSTEM.OBJ|C:\USERS\MOKUJIN\DOCUMENTS\SPACEBATTLE\SPACEBATTLE\SPACEBATTLE\DEBUG\CTRAILPARTICLEDRAWER.OBJ|C:\USERS\MOKUJIN\DOCUMENTS\SPACEBATTLE\SPACEBATTLE\SPACEBATTLE\DEBUG\DIFFICULTYSELECTSCREEN.OBJ|C:\USERS\MOKUJIN\DOCUMENTS\SPACEBATTLE\SPACEBATTLE\SPACEBATTLE\DEBUG\ENEMY.OBJ|C:\USERS\MOKUJIN\DOCUMENTS\SPACEBATTLE\SPACEBATTLE\SPACEBATTLE\DEBUG\EXITSPLASHSCREEN.OBJ|C:\USERS\MOKUJIN\DOCUMENTS\SPACEBATTLE\SPACEBATTLE\SPACEBATTLE\DEBUG\EXPLOSIBLE.OBJ|C:\USERS\MOKUJIN\DOCUMENTS\SPACEBATTLE\SPACEBATTLE\SPACEBATTLE\DEBUG\GAME.OBJ|C:\USERS\MOKUJIN\DOCUMENTS\SPACEBATTLE\SPACEBATTLE\SPACEBATTLE\DEBUG\GAMEOBJECT.OBJ|C:\USERS\MOKUJIN\DOCUMENTS\SPACEBATTLE\SPACEBATTLE\SPACEBATTLE\DEBUG\GAMESCREEN.OBJ|C:\USERS\MOKUJIN\DOCUMENTS\SPACEBATTLE\SPACEBATTLE\SPACEBATTLE\DEBUG\HELPSCREEN.OBJ|C:\USERS\MOKUJIN\DOCUMENTS\SPACEBATTLE\SPACEBATTLE\SPACEBATTLE\DEBUG\INPUTRECEIVER.OBJ|C:\USERS\MOKUJIN\DOCUMENTS\SPACEBATTLE\SPACEBATTLE\SPACEBATTLE\DEBUG\LEVEL.OBJ|C:\USERS\MOKUJIN\DOCUMENTS\SPACEBATTLE\SPACEBATTLE\SPACEBATTLE\DEBUG\LOADSCREEN.OBJ|C:\USERS\MOKUJIN\DOCUMENTS\SPACEBATTLE\SPACEBATTLE\SPACEBATTLE\DEBUG\MAIN.OBJ|C:\USERS\MOKUJIN\DOCUMENTS\SPACEBATTLE\SPACEBATTLE\SPACEBATTLE\DEBUG\MAINMENUSCREEN.OBJ|C:\USERS\MOKUJIN\DOCUMENTS\SPACEBATTLE\SPACEBATTLE\SPACEBATTLE\DEBUG\MENUITEM.OBJ|C:\USERS\MOKUJIN\DOCUMENTS\SPACEBATTLE\SPACEBATTLE\SPACEBATTLE\DEBUG\RESOURCEMANAGER.OBJ|C:\USERS\MOKUJIN\DOCUMENTS\SPACEBATTLE\SPACEBATTLE\SPACEBATTLE\DEBUG\ROCKET.OBJ|C:\USERS\MOKUJIN\DOCUMENTS\SPACEBATTLE\SPACEBATTLE\SPACEBATTLE\DEBUG\SCOREAFFECTOR.OBJ|C:\USERS\MOKUJIN\DOCUMENTS\SPACEBATTLE\SPACEBATTLE\SPACEBATTLE\DEBUG\SCORECONTAINER.OBJ|C:\USERS\MOKUJIN\DOCUMENTS\SPACEBATTLE\SPACEBATTLE\SPACEBATTLE\DEBUG\SCREEN.OBJ|C:\USERS\MOKUJIN\DOCUMENTS\SPACEBATTLE\SPACEBATTLE\SPACEBATTLE\DEBUG\SCREENMANAGER.OBJ|C:\USERS\MOKUJIN\DOCUMENTS\SPACEBATTLE\SPACEBATTLE\SPACEBATTLE\DEBUG\SETTINGSSCREEN.OBJ|C:\USERS\MOKUJIN\DOCUMENTS\SPACEBATTLE\SPACEBATTLE\SPACEBATTLE\DEBUG\SHIP.OBJ|C:\USERS\MOKUJIN\DOCUMENTS\SPACEBATTLE\SPACEBATTLE\SPACEBATTLE\DEBUG\SPACEBATTLEGAME.OBJ|C:\USERS\MOKUJIN\DOCUMENTS\SPACEBATTLE\SPACEBATTLE\SPACEBATTLE\DEBUG\SPLASHSCREEN.OBJ|C:\USERS\MOKUJIN\DOCUMENTS\SPACEBATTLE\SPACEBATTLE\SPACEBATTLE\DEBUG\TEXTITEM.OBJ
C:\USERS\MOKUJIN\DOCUMENTS\SPACEBATTLE\SPACEBATTLE\DEBUG\SPACEBATTLE.ILK
C:\USERS\MOKUJIN\DOCUMENTS\SPACEBATTLE\SPACEBATTLE\DEBUG\SPACEBATTLE.EXE
C:\USERS\MOKUJIN\DOCUMENTS\SPACEBATTLE\SPACEBATTLE\DEBUG\SPACEBATTLE.PDB
^D:\09.04.2013\DOCUMENTS\SPACEBATTLE\SPACEBATTLE\SPACEBATTLE\DEBUG\ABOUTSCREEN.OBJ|D:\09.04.2013\DOCUMENTS\SPACEBATTLE\SPACEBATTLE\SPACEBATTLE\DEBUG\APROVESCREEN.OBJ|D:\09.04.2013\DOCUMENTS\SPACEBATTLE\SPACEBATTLE\SPACEBATTLE\DEBUG\ASTEROID.OBJ|D:\09.04.2013\DOCUMENTS\SPACEBATTLE\SPACEBATTLE\SPACEBATTLE\DEBUG\AUDIOMANAGER.OBJ|D:\09.04.2013\DOCUMENTS\SPACEBATTLE\SPACEBATTLE\SPACEBATTLE\DEBUG\CAMERAEXT.OBJ|D:\09.04.2013\DOCUMENTS\SPACEBATTLE\SPACEBATTLE\SPACEBATTLE\DEBUG\CBILLBOARDPARTICLEDRAWER.OBJ|D:\09.04.2013\DOCUMENTS\SPACEBATTLE\SPACEBATTLE\SPACEBATTLE\DEBUG\CORIENTEDPARTICLEDRAWER.OBJ|D:\09.04.2013\DOCUMENTS\SPACEBATTLE\SPACEBATTLE\SPACEBATTLE\DEBUG\CPARTICLEDRAWER.OBJ|D:\09.04.2013\DOCUMENTS\SPACEBATTLE\SPACEBATTLE\SPACEBATTLE\DEBUG\CPARTICLEEMITTER.OBJ|D:\09.04.2013\DOCUMENTS\SPACEBATTLE\SPACEBATTLE\SPACEBATTLE\DEBUG\CPARTICLESYSTEM.OBJ|D:\09.04.2013\DOCUMENTS\SPACEBATTLE\SPACEBATTLE\SPACEBATTLE\DEBUG\CTRAILPARTICLEDRAWER.OBJ|D:\09.04.2013\DOCUMENTS\SPACEBATTLE\SPACEBATTLE\SPACEBATTLE\DEBUG\DIFFICULTYSELECTSCREEN.OBJ|D:\09.04.2013\DOCUMENTS\SPACEBATTLE\SPACEBATTLE\SPACEBATTLE\DEBUG\ENEMY.OBJ|D:\09.04.2013\DOCUMENTS\SPACEBATTLE\SPACEBATTLE\SPACEBATTLE\DEBUG\EXITSPLASHSCREEN.OBJ|D:\09.04.2013\DOCUMENTS\SPACEBATTLE\SPACEBATTLE\SPACEBATTLE\DEBUG\EXPLOSIBLE.OBJ|D:\09.04.2013\DOCUMENTS\SPACEBATTLE\SPACEBATTLE\SPACEBATTLE\DEBUG\GAME.OBJ|D:\09.04.2013\DOCUMENTS\SPACEBATTLE\SPACEBATTLE\SPACEBATTLE\DEBUG\GAMEOBJECT.OBJ|D:\09.04.2013\DOCUMENTS\SPACEBATTLE\SPACEBATTLE\SPACEBATTLE\DEBUG\GAMESCREEN.OBJ|D:\09.04.2013\DOCUMENTS\SPACEBATTLE\SPACEBATTLE\SPACEBATTLE\DEBUG\HELPSCREEN.OBJ|D:\09.04.2013\DOCUMENTS\SPACEBATTLE\SPACEBATTLE\SPACEBATTLE\DEBUG\INPUTRECEIVER.OBJ|D:\09.04.2013\DOCUMENTS\SPACEBATTLE\SPACEBATTLE\SPACEBATTLE\DEBUG\LEVEL.OBJ|D:\09.04.2013\DOCUMENTS\SPACEBATTLE\SPACEBATTLE\SPACEBATTLE\DEBUG\LOADSCREEN.OBJ|D:\09.04.2013\DOCUMENTS\SPACEBATTLE\SPACEBATTLE\SPACEBATTLE\DEBUG\MAIN.OBJ|D:\09.04.2013\DOCUMENTS\SPACEBATTLE\SPACEBATTLE\SPACEBATTLE\DEBUG\MAINMENUSCREEN.OBJ|D:\09.04.2013\DOCUMENTS\SPACEBATTLE\SPACEBATTLE\SPACEBATTLE\DEBUG\MENUITEM.OBJ|D:\09.04.2013\DOCUMENTS\SPACEBATTLE\SPACEBATTLE\SPACEBATTLE\DEBUG\RESOURCEMANAGER.OBJ|D:\09.04.2013\DOCUMENTS\SPACEBATTLE\SPACEBATTLE\SPACEBATTLE\DEBUG\ROCKET.OBJ|D:\09.04.2013\DOCUMENTS\SPACEBATTLE\SPACEBATTLE\SPACEBATTLE\DEBUG\SCOREAFFECTOR.OBJ|D:\09.04.2013\DOCUMENTS\SPACEBATTLE\SPACEBATTLE\SPACEBATTLE\DEBUG\SCORECONTAINER.OBJ|D:\09.04.2013\DOCUMENTS\SPACEBATTLE\SPACEBATTLE\SPACEBATTLE\DEBUG\SCREEN.OBJ|D:\09.04.2013\DOCUMENTS\SPACEBATTLE\SPACEBATTLE\SPACEBATTLE\DEBUG\SCREENMANAGER.OBJ|D:\09.04.2013\DOCUMENTS\SPACEBATTLE\SPACEBATTLE\SPACEBATTLE\DEBUG\SETTINGSSCREEN.OBJ|D:\09.04.2013\DOCUMENTS\SPACEBATTLE\SPACEBATTLE\SPACEBATTLE\DEBUG\SHIP.OBJ|D:\09.04.2013\DOCUMENTS\SPACEBATTLE\SPACEBATTLE\SPACEBATTLE\DEBUG\SPACEBATTLEGAME.OBJ|D:\09.04.2013\DOCUMENTS\SPACEBATTLE\SPACEBATTLE\SPACEBATTLE\DEBUG\SPLASHSCREEN.OBJ|D:\09.04.2013\DOCUMENTS\SPACEBATTLE\SPACEBATTLE\SPACEBATTLE\DEBUG\TEXTITEM.OBJ
D:\09.04.2013\DOCUMENTS\SPACEBATTLE\SPACEBATTLE\DEBUG\SPACEBATTLE.ILK
D:\09.04.2013\DOCUMENTS\SPACEBATTLE\SPACEBATTLE\DEBUG\SPACEBATTLE.EXE
D:\09.04.2013\DOCUMENTS\SPACEBATTLE\SPACEBATTLE\SPACEBATTLE\DEBUG\SPACEBATTLE.EXE.INTERMEDIATE.MANIFEST
D:\09.04.2013\DOCUMENTS\SPACEBATTLE\SPACEBATTLE\DEBUG\SPACEBATTLE.PDB
